Division,WeightClassKg,Place,Name,Team,BodyweightKg,Best3SquatKg,Best3BenchKg,Best3DeadliftKg,TotalKg,Equipment,Event,Sex,BirthDate
Boys,51.71,1,Tyler Morrow #1,Copperas Cove,51.03,199.58,90.72,206.38,496.68,Single-ply,SBD,M,
Boys,51.71,2,Justin Moss,Burleson,51.26,170.1,113.4,170.1,453.59,Single-ply,SBD,M,
Boys,51.71,3,Isaac Rios,Killeen Ellison,51.03,154.22,95.25,165.56,415.04,Single-ply,SBD,M,
Boys,51.71,4,Onesimo Esquivel,San Marcos,50.8,151.95,81.65,170.1,403.7,Single-ply,SBD,M,
Boys,51.71,5,Coal Aylesworth,Burleson Centennial,51.26,156.49,81.65,165.56,403.7,Single-ply,SBD,M,
Boys,51.71,6,Anthony Ramirez,San Antonio East Central,50.58,127.01,95.25,170.1,392.36,Single-ply,SBD,M,
Boys,51.71,7,James Medrano,Seguin,49.67,149.69,81.65,154.22,385.55,Single-ply,SBD,M,
Boys,51.71,8,A Phi Le,Pflugerville,49.21,131.54,77.11,145.15,353.8,Single-ply,SBD,M,
Boys,51.71,9,Rodolfo Cruz,Cleburne,49.21,129.27,63.5,147.42,340.19,Single-ply,SBD,M,
Boys,51.71,10,Yamin Sultan,College Station,50.8,120.2,70.31,140.61,331.12,Single-ply,SBD,M,
Boys,51.71,DQ,Alfred Garcia,San Antonio Southwest,51.48,,,,,Single-ply,SBD,M,
Boys,51.71,NS,Josiah Ugarte,South San Antonio,,,,,,Single-ply,SBD,M,
Boys,55.79,1,Tommy Hession,College Station,54.43,213.19,102.06,197.31,512.56,Single-ply,SBD,M,
Boys,55.79,2,Isaac Jones,Belton,54.88,190.51,104.33,197.31,492.15,Single-ply,SBD,M,
Boys,55.79,3,Justin Figueroa,San Antonio East Central,54.66,183.7,115.67,181.44,480.81,Single-ply,SBD,M,
Boys,55.79,4,Jonah Lopez,San Antonio Memorial,54.43,190.51,90.72,179.17,460.4,Single-ply,SBD,M,
Boys,55.79,5,Armando Reta,Kyle Lehman,54.66,179.17,86.18,174.63,439.98,Single-ply,SBD,M,
Boys,55.79,6,McCullough Ryan,Burleson,53.98,161.03,99.79,176.9,437.72,Single-ply,SBD,M,
Boys,55.79,7,Grayson Thomas,Burleson,55.34,172.37,97.52,154.22,424.11,Single-ply,SBD,M,
Boys,55.79,8,Shaheed Rector,Pflugerville,53.98,167.83,90.72,149.69,408.23,Single-ply,SBD,M,
Boys,55.79,9,Dj Hamilton,Buda Johnson,54.66,147.42,88.45,161.03,396.89,Single-ply,SBD,M,
Boys,55.79,10,Dylan Deutsch,Bastrop Cedar Creek,55.57,136.08,97.52,151.95,385.55,Single-ply,SBD,M,
Boys,55.79,11,Nick Perez,Belton,54.88,136.08,83.91,154.22,374.21,Single-ply,SBD,M,
Boys,55.79,DQ,Marc Perez,San Antonio Southwest Legacy,55.57,,,,,Single-ply,SBD,M,
Boys,59.87,1,Brayden Bromonsky,Kyle Lehman,58.74,274.42,122.47,244.94,641.83,Single-ply,SBD,M,
Boys,59.87,2,Enrique Reyes,Marble Falls,59.65,201.85,106.59,206.38,514.83,Single-ply,SBD,M,
Boys,59.87,3,Josh Soliz,Seguin,59.42,195.04,117.93,185.97,498.95,Single-ply,SBD,M,
Boys,59.87,4,Miguel H Cruz,San Antonio Southwest Legacy,59.42,188.24,99.79,210.92,498.95,Single-ply,SBD,M,
Boys,59.87,5,Ritchie Willess,Belton,57.83,170.1,111.13,199.58,480.81,Single-ply,SBD,M,
Boys,59.87,6,Nate Cavarrubio,Buda Johnson,58.51,179.17,111.13,190.51,480.81,Single-ply,SBD,M,
Boys,59.87,7,Nick Nyguen,Bastrop,58.29,170.1,92.99,183.7,446.79,Single-ply,SBD,M,
Boys,59.87,8,Gavin Salinas,Liberty Hill,59.19,172.37,106.59,163.29,442.25,Single-ply,SBD,M,
Boys,59.87,9,Fabio Reyes,Kyle Lehman,59.87,172.37,92.99,172.37,437.72,Single-ply,SBD,M,
Boys,59.87,10,Justin Barcenas,Kyle Lehman,59.19,163.29,74.84,188.24,426.38,Single-ply,SBD,M,
Boys,59.87,DQ,Julian Enriquez,Buda Johnson,58.97,170.1,,,,Single-ply,SBD,M,
Boys,59.87,DQ,Matthew Smith #25,Burleson,59.87,,,,,Single-ply,SBD,M,
Boys,67.13,1,Joshua Bazan,Castroville Medina Valley,65.54,229.06,138.35,210.92,578.33,Single-ply,SBD,M,
Boys,67.13,2,Christian Negrete,Burleson,65.32,222.26,122.47,208.65,553.38,Single-ply,SBD,M,
Boys,67.13,3,Will Eckford,Liberty Hill,66.9,208.65,140.61,204.12,553.38,Single-ply,SBD,M,
Boys,67.13,4,Aidan Flores,Seguin,65.54,208.65,124.74,215.46,548.85,Single-ply,SBD,M,
Boys,67.13,5,Joseph Bazan,Castroville Medina Valley,66.68,208.65,113.4,222.26,544.31,Single-ply,SBD,M,
Boys,67.13,6,Tyler Lawson,Georgetown,66.22,197.31,124.74,201.85,523.9,Single-ply,SBD,M,
Boys,67.13,7,Christian Jeanes,Kyle Lehman,66.68,192.78,113.4,215.46,521.63,Single-ply,SBD,M,
Boys,67.13,8,Nacious Jaquez,San Antonio Kennedy,66.22,199.58,117.93,199.58,517.1,Single-ply,SBD,M,
Boys,67.13,9,Freddie Hastings,Seguin,66.9,197.31,117.93,201.85,517.1,Single-ply,SBD,M,
Boys,67.13,10,Gabriel Tan,College Station,66,199.58,124.74,181.44,505.76,Single-ply,SBD,M,
Boys,67.13,11,M Tatum,Huntsville,66.22,190.51,115.67,190.51,496.68,Single-ply,SBD,M,
Boys,67.13,12,Zach Decker,San Marcos,64.18,199.58,83.91,183.7,467.2,Single-ply,SBD,M,
Boys,67.13,DQ,Adrain Vega,Pflugerville,66.9,215.46,,,,Single-ply,SBD,M,
Boys,74.84,1,Johnathan Cranford,Burleson,73.71,272.16,165.56,226.8,664.51,Single-ply,SBD,M,
Boys,74.84,2,Dax Lott,Waxahachie,73.94,217.72,195.04,183.7,596.47,Single-ply,SBD,M,
Boys,74.84,3,Gavin LaFleur,Floresville,69.63,233.6,136.08,219.99,589.67,Single-ply,SBD,M,
Boys,74.84,4,Roman Mason,Pflugerville Connally,72.12,229.06,129.27,231.33,589.67,Single-ply,SBD,M,
Boys,74.84,5,Chandler Gastello,Copperas Cove,73.71,229.06,129.27,217.72,576.06,Single-ply,SBD,M,
Boys,74.84,6,Joel Salazar,Seguin,73.26,219.99,131.54,215.46,566.99,Single-ply,SBD,M,
Boys,74.84,7,Christopher Rodriguez,San Antonio Southside,68.95,231.33,120.2,204.12,555.65,Single-ply,SBD,M,
Boys,74.84,8,Miguel Guerra,Kyle Lehman,73.94,204.12,124.74,226.8,555.65,Single-ply,SBD,M,
Boys,74.84,9,Terell Davis,Waxahachie,72.57,215.46,102.06,215.46,532.97,Single-ply,SBD,M,
Boys,74.84,DQ,Matthew Martin,College Station A&M Cons,73.48,215.46,,,,Single-ply,SBD,M,
Boys,74.84,DQ,Braylen Galbreath,Joshua,73.03,,,,,Single-ply,SBD,M,
Boys,74.84,DQ,Mike Gonzales,Brenham,74.16,,,,,Single-ply,SBD,M,
Boys,82.1,1,Diego Macedo,Kyle Lehman,80.51,301.64,156.49,276.69,734.82,Single-ply,SBD,M,
Boys,82.1,2,Jacob Simpkins,Joshua,79.15,285.76,183.7,233.6,703.07,Single-ply,SBD,M,
Boys,82.1,3,Ethan Hall,College Station,80.29,278.96,158.76,242.67,680.39,Single-ply,SBD,M,
Boys,82.1,4,Brayden Gardner,Ennis,82.1,249.48,181.44,215.46,646.37,Single-ply,SBD,M,
Boys,82.1,5,Tyrese Francis,Copperas Cove,80.29,258.55,145.15,226.8,630.49,Single-ply,SBD,M,
Boys,82.1,6,Morris Marshall,Killeen Harker Heights,80.74,210.92,129.27,283.5,623.69,Single-ply,SBD,M,
Boys,82.1,7,Michael Martinez,Seguin,80.97,224.53,161.03,226.8,612.35,Single-ply,SBD,M,
Boys,82.1,8,Andrew Freese,Burleson,81.65,238.14,129.27,238.14,605.55,Single-ply,SBD,M,
Boys,82.1,9,Ruben Najera,Brenham,79.61,231.33,122.47,244.94,598.74,Single-ply,SBD,M,
Boys,82.1,10,Jerivan Contreras,Seguin,80.29,215.46,156.49,224.53,596.47,Single-ply,SBD,M,
Boys,82.1,11,Allan Romero,Del Valle,81.19,229.06,124.74,242.67,596.47,Single-ply,SBD,M,
Boys,82.1,12,Josue Garcia,Marble Falls,79.38,210.92,136.08,242.67,589.67,Single-ply,SBD,M,
Boys,82.1,DQ,Ethan Hernandez,Burleson,79.38,222.26,,,,Single-ply,SBD,M,
Boys,82.1,NS,Reid Bynum,Liberty Hill,,,,,,Single-ply,SBD,M,
Boys,89.81,1,Caleb Esparza,Kyle Lehman,88,356.07,165.56,260.82,782.45,Single-ply,SBD,M,
Boys,89.81,2,Joe Maldonado,Marble Falls,82.33,301.64,156.49,263.08,721.21,Single-ply,SBD,M,
Boys,89.81,3,Pena Ryan,San Antonio Southwest,82.78,276.69,167.83,260.82,705.34,Single-ply,SBD,M,
Boys,89.81,4,Brock Slaydon,College Station A&M Cons,85.05,290.3,158.76,254.01,703.07,Single-ply,SBD,M,
Boys,89.81,5,Nathan Peralta,San Antonio Southside,87.77,249.48,147.42,251.74,648.64,Single-ply,SBD,M,
Boys,89.81,6,Christian Lopez #9,Bastrop,89.81,249.48,158.76,235.87,644.1,Single-ply,SBD,M,
Boys,89.81,7,Michael Connell,San Antonio East Central,86.18,215.46,136.08,265.35,616.89,Single-ply,SBD,M,
Boys,89.81,8,Clayton Sherman,Bastrop,89.81,249.48,129.27,224.53,603.28,Single-ply,SBD,M,
Boys,89.81,9,Evan Owen,Corsicana,88.68,224.53,156.49,208.65,589.67,Single-ply,SBD,M,
Boys,89.81,10,Jonah Myers,Belton,88.45,222.26,136.08,222.26,580.6,Single-ply,SBD,M,
Boys,89.81,DQ,Sam Meeker,Ennis,89.81,272.16,,,,Single-ply,SBD,M,
Boys,89.81,DQ,Ivan Diaz,Waco,87.54,249.48,,,,Single-ply,SBD,M,
Boys,99.79,1,David May #4,College Station A&M Cons,91.4,310.71,140.61,263.08,714.41,Single-ply,SBD,M,
Boys,99.79,2,Seth Bullard,Castroville Medina Valley,97.07,292.57,183.7,238.14,714.41,Single-ply,SBD,M,
Boys,99.79,3,Jacob Maldonado,Marble Falls,96.84,265.35,174.63,267.62,707.6,Single-ply,SBD,M,
Boys,99.79,4,Lucas Hagler,Ennis,96.16,244.94,174.63,242.67,662.24,Single-ply,SBD,M,
Boys,99.79,5,Thomas Thornburg,Georgetown East View,96.62,274.42,142.88,244.94,662.24,Single-ply,SBD,M,
Boys,99.79,6,Taj Johnson,Del Valle,99.79,258.55,151.95,247.21,657.71,Single-ply,SBD,M,
Boys,99.79,7,Fabian Alvarez,San Antonio Southwest Legacy,97.07,247.21,145.15,256.28,648.64,Single-ply,SBD,M,
Boys,99.79,8,Thomas Connolly,Killeen Harker Heights,97.07,258.55,167.83,222.26,648.64,Single-ply,SBD,M,
Boys,99.79,9,Klayton Sheffield,College Station A&M Cons,95.48,258.55,167.83,213.19,639.57,Single-ply,SBD,M,
Boys,99.79,10,Nicholas Luna,Kyle Lehman,98.43,265.35,140.61,229.06,635.03,Single-ply,SBD,M,
Boys,99.79,11,Rolando Sierra,Waxahachie,98.2,240.4,142.88,231.33,614.62,Single-ply,SBD,M,
Boys,99.79,DQ,Timothy Huff,San Antonio East Central,93.44,,,,,Single-ply,SBD,M,
Boys,109.77,1,Abdias Castillo,Elgin,102.97,319.78,201.85,263.08,784.71,Single-ply,SBD,M,
Boys,109.77,2,Ethan Tullos-Chapa,San Antonio Southwest Legacy,109.09,278.96,206.38,254.01,739.36,Single-ply,SBD,M,
Boys,109.77,3,Cooper Zelazny,Joshua,109.54,303.91,165.56,260.82,730.28,Single-ply,SBD,M,
Boys,109.77,4,Clark Griffin,San Antonio Southwest,100.02,294.84,165.56,251.74,712.14,Single-ply,SBD,M,
Boys,109.77,5,Perry Izaiah,Burleson,108.41,272.16,181.44,231.33,684.92,Single-ply,SBD,M,
Boys,109.77,6,Brayden Smith,Midlothian,107.95,258.55,165.56,256.28,680.39,Single-ply,SBD,M,
Boys,109.77,7,Calvin Simmons,Huntsville,107.95,267.62,147.42,260.82,675.85,Single-ply,SBD,M,
Boys,109.77,8,Genaro Rocha,South San Antonio,106.82,260.82,151.95,226.8,639.57,Single-ply,SBD,M,
Boys,109.77,9,Gabe Kalama,Belton,106.37,240.4,151.95,226.8,619.15,Single-ply,SBD,M,
Boys,109.77,DQ,Brian Lester,Bryan,107.27,,,,,Single-ply,SBD,M,
Boys,109.77,DQ,Cesar Martínez,Bryan,107.05,251.74,156.49,,,Single-ply,SBD,M,
Boys,109.77,DQ,Cody Wilkerson,San Antonio Southside,109.32,,,,,Single-ply,SBD,M,
Boys,124.74,1,Michael Pinones,San Antonio East Central,120.2,272.16,190.51,290.3,752.96,Single-ply,SBD,M,
Boys,124.74,2,Alexander Handy,Bastrop Cedar Creek,122.7,303.91,147.42,272.16,723.48,Single-ply,SBD,M,
Boys,124.74,3,Michael Valenta,Georgetown,123.38,272.16,174.63,256.28,703.07,Single-ply,SBD,M,
Boys,124.74,4,Bradley Gregory,Joshua,124.28,294.84,170.1,238.14,703.07,Single-ply,SBD,M,
Boys,124.74,5,Isaiah Ulibarri,San Antonio Southwest Legacy,119.29,283.5,163.29,249.48,696.26,Single-ply,SBD,M,
Boys,124.74,6,JonTavion Workman,Bryan,122.24,249.48,181.44,254.01,684.92,Single-ply,SBD,M,
Boys,124.74,7,Lyndon Williams,Bryan Rudder,120.2,238.14,183.7,260.82,682.66,Single-ply,SBD,M,
Boys,124.74,8,Jaxen Robinson,Waxahachie,118.16,251.74,215.46,204.12,671.32,Single-ply,SBD,M,
Boys,124.74,9,Harvey Roberts-Conley,Bryan Rudder,122.7,265.35,170.1,219.99,655.44,Single-ply,SBD,M,
Boys,124.74,10,Jalen Miller,Kyle Lehman,110.9,272.16,138.35,240.4,650.91,Single-ply,SBD,M,
Boys,124.74,DQ,Ethan Dranowsky,San Antonio Kennedy,110.9,265.35,147.42,,,Single-ply,SBD,M,
Boys,124.74,DQ,Christopher Garcia,Copperas Cove,115.67,249.48,154.22,,,Single-ply,SBD,M,
Boys,139.71,1,Joseph Lightfoot,College Station A&M Cons,133.36,290.3,181.44,254.01,725.75,Single-ply,SBD,M,
Boys,139.71,2,Josh Johnson,Joshua,126.1,285.76,174.63,254.01,714.41,Single-ply,SBD,M,
Boys,139.71,3,Jason Batiste,Bryan Rudder,134.26,294.84,183.7,235.87,714.41,Single-ply,SBD,M,
Boys,139.71,4,Dylan Clifton,Buda Hays,134.04,269.89,163.29,260.82,694,Single-ply,SBD,M,
Boys,139.71,5,Ausitn Pennington,Bryan,126.55,272.16,158.76,254.01,684.92,Single-ply,SBD,M,
Boys,139.71,6,Christopher Smith,Huntsville,131.77,290.3,151.95,238.14,680.39,Single-ply,SBD,M,
Boys,139.71,7,Jahmyeer Larkins,Killeen,132.45,260.82,145.15,269.89,675.85,Single-ply,SBD,M,
Boys,139.71,8,Jackson Harrison,Liberty Hill,126.33,276.69,151.95,233.6,662.24,Single-ply,SBD,M,
Boys,139.71,9,Adam Delgado,San Antonio Southwest,128.82,265.35,142.88,249.48,657.71,Single-ply,SBD,M,
Boys,139.71,10,Karim Zuniga,Lockhart,132,258.55,136.08,263.08,657.71,Single-ply,SBD,M,
Boys,139.71,11,Kade Thompkins,Midlothian,133.13,238.14,161.03,235.87,635.03,Single-ply,SBD,M,
Boys,139.71,12,Paul Monrial,Waco University,129.5,226.8,165.56,136.08,528.44,Single-ply,SBD,M,
Boys,139.71+,1,Ivan Garcia #1,San Antonio Memorial,144.7,308.44,176.9,235.87,721.21,Single-ply,SBD,M,
Boys,139.71+,2,Thomas Rose,Huntsville,139.93,276.69,181.44,238.14,696.26,Single-ply,SBD,M,
Boys,139.71+,3,Carl Harris,Corsicana,166.01,294.84,172.37,219.99,687.19,Single-ply,SBD,M,
Boys,139.71+,4,Kenneth Teters,Midlothian,183.48,299.37,149.69,229.06,678.12,Single-ply,SBD,M,
Boys,139.71+,5,Tomothy Chandler,College Station A&M Cons,142.65,272.16,158.76,204.12,635.03,Single-ply,SBD,M,
Boys,139.71+,6,Niaro Langrus,Joshua,145.6,272.16,124.74,226.8,623.69,Single-ply,SBD,M,
Boys,139.71+,7,Davarion Godley,Manor,175.54,233.6,147.42,240.4,621.42,Single-ply,SBD,M,
Boys,139.71+,8,Manuel Belmarez,San Antonio Memorial,145.38,263.08,154.22,199.58,616.89,Single-ply,SBD,M,
Boys,139.71+,9,Cooper Lovelace,Bastrop,147.64,231.33,165.56,210.92,607.81,Single-ply,SBD,M,
Boys,139.71+,DQ,Isacc Ibarra,Bryan,165.11,260.82,167.83,,,Single-ply,SBD,M,
Boys,139.71+,DQ,Lamarian Hatcher,Killeen Harker Heights,149.01,283.5,176.9,,,Single-ply,SBD,M,
Boys,139.71+,DQ,Jaidyn Birts,San Antonio Southwest,148.32,265.35,172.37,,,Single-ply,SBD,M,
