Name,BirthDate,Sex,Equipment,Division,BodyweightKg,WeightClassKg,State,Squat1Kg,Squat2Kg,Squat3Kg,Squat4Kg,Best3SquatKg,Bench1Kg,Bench2Kg,Bench3Kg,Bench4Kg,Best3BenchKg,Deadlift1Kg,Deadlift2Kg,Deadlift3Kg,Deadlift4Kg,Best3DeadliftKg,TotalKg,Event,Place
Diana Vallinoto,,F,Raw,SubM,43,44,,,,,,,57.5,62.5,-66,,62.5,135,142.5,145,,145,207.5,BD,1
Tamara Cordoba,,F,Raw,Jun,47.1,48,,,,,,,30,35,40,,40,100,110,115,,115,155,BD,1
Bernardette Marin,,F,Raw,OP,50.8,52,,,,,,,55,-60,-60,,55,130,140,-143,,140,195,BD,1
Catalina Groppa,,F,Raw,Jun,53.4,56,,,,,,,37.5,40.5,42.5,-45,42.5,102,107,112,,112,154.5,BD,1
Sandra Vega,,F,Raw,M1,53.6,56,,,,,,,40,45,-47.5,,45,115,120,125,,125,170,BD,1
Sonia Sarapura,,F,Raw,M1,53,56,,,,,,,45,48,50,,50,115,120,125,,125,175,BD,1
Soledad Uriz,,F,Raw,Jun,60,60,,,,,,,45,50,-52.5,,50,140,150,155,,155,205,BD,1
Soledad Chauqui,,F,Raw,OP,60,60,,,,,,,60,65,-67.5,,65,150,160,165,,165,230,BD,1
Natalia Ballesteros,,F,Raw,OP,59.3,60,,,,,,,65,67.5,70,,70,150,-155,-155,,150,220,BD,1
Florencia Castillo,,F,Raw,Jun,60.9,67.5,,,,,,,30,35,40,,40,100,105,110,,110,150,BD,1
Roxana Viscarra,,F,Raw,SubM,61.8,67.5,,,,,,,50,55,-57.5,,55,125,130,137.5,,137.5,192.5,BD,1
Analia Muñoz,,F,Raw,M1,62.9,67.5,,,,,,,55,62.5,-67.5,,62.5,120,125,135,,135,197.5,BD,1
Vilma De La Rocha,,F,Raw,M2,67.3,67.5,,,,,,,45,50,-52.5,,50,80,-90,,,80,130,BD,1
Carolina Cuello,,F,Raw,OP,74.1,75,,,,,,,85,92.5,97.5,,97.5,175,190,-210,,190,287.5,BD,1
Rita Rivadeneira,,F,Raw,SubM,70.4,75,,,,,,,50,52.5,-55,,52.5,150,155,-157.5,,155,207.5,BD,1
Analia La Vega,,F,Raw,SubM,74.6,75,,,,,,,87.5,92.5,93,,93,150,165,-170,,165,258,BD,1
Cecilia Gilabert,,F,Raw,M2,69.4,75,,,,,,,45,50,-55,,50,110,115,120,,120,170,BD,1
Rebeca Gallardo,,F,Raw,Jun,80.1,82.5,,,,,,,55,60,70,,70,150,155,160,,160,230,BD,1
Eliana Ledezma,,F,Raw,SubM,77.1,82.5,,,,,,,110,-115,-115,,110,195,200,-205,,200,310,BD,1
Rosa Pedroza,,F,Raw,SubM,106.7,90+,,,,,,,50,60,70,,70,145,155,170,,170,240,BD,1
Javier Bernachi Jr,,M,Raw,T1,48,48,,,,,,,60,65,-70,,65,110,120,125,126,125,190,BD,1
Martin Magno,,M,Raw,T2,59.8,60,,,,,,,60,65,-70,,65,140,150,160,,160,225,BD,1
Tomas Cipriano,,M,Raw,T2,60,60,,,,,,,60,65,-67.5,,65,110,125,130,,130,195,BD,1
Leandro Rimoldi,,M,Raw,Jun,58.9,60,,,,,,,70,75,-80,,75,145,152.5,-162.5,,152.5,227.5,BD,1
Facu Rosso Dobenau,,M,Raw,T2,66.3,67.5,,,,,,,110,120,-130,,120,160,-165,,,160,280,BD,1
Juan Castrillo,,M,Raw,Jun,65.1,67.5,,,,,,,107.5,-112.5,112.5,-115,112.5,170,180,190,-195.5,190,302.5,BD,1
Cristian Alvarez,,M,Raw,Jun,65,67.5,,,,,,,-85,90,-100,,90,170,175,-180,,175,265,BD,1
Rafael Castro,,M,Raw,Jun,66.4,67.5,,,,,,,102,107.5,-110,,107.5,185,195,-200.5,,195,302.5,BD,1
Agustin Fernandez,,M,Raw,Jun,66.2,67.5,,,,,,,80,87.5,-90,,87.5,165,172.5,185,-195.5,185,272.5,BD,1
Jorge Villalva,,M,Raw,SubM,66.5,67.5,,,,,,,100,105,110,,110,180,190,195,,195,305,BD,1
Jesus Leyes,,M,Raw,M2,66.5,67.5,,,,,,,75,80,85,,85,130,140,145,,145,230,BD,1
Joaquin Rodriguez,,M,Raw,T2,69.5,75,,,,,,,85,87.5,90,,90,180,190,200.5,,200.5,290.5,BD,1
Lautaro Aichino,,M,Raw,Jun,75,75,,,,,,,80,90,95,,95,170,-180,180,,180,275,BD,1
Juan Campostrini,,M,Raw,Jun,74.4,75,,,,,,,90,100,-105,,100,190,200,-210,,200,300,BD,1
Gianfranco Occhionero,,M,Raw,OP,74.1,75,,,,,,,80,-90,-90,,80,170,180,190,,190,270,BD,1
Walter Leyes Malco,,M,Raw,OP,69.9,75,,,,,,,70,-75,-75,,70,135,145,-150,,145,215,BD,1
Ricardo Morales,,M,Raw,OP,73.8,75,,,,,,,125,-132.5,-132.5,,125,220,240,252.5,,252.5,377.5,BD,1
Federico Del Blanco,,M,Raw,SubM,73.6,75,,,,,,,95,100,-110,,100,155,170,180,,180,280,BD,1
Mauricio Cristaldo,,M,Raw,M1,74.8,75,,,,,,,100,105,106,,106,175,180,-185,,180,286,BD,1
Franco Alvornoz,,M,Raw,M1,70,75,,,,,,,80,90,-95,,90,-190,190,216,,216,306,BD,1
Santiago Ardissono,,M,Raw,M1,74.6,75,,,,,,,102.5,110,-115,,110,190,200,205,-216.5,205,315,BD,1
Agustin Teseira,,M,Raw,T2,82,82.5,,,,,,,115,120,-125,,120,225,235,-250,,235,355,BD,1
Emanuel Murias,,M,Raw,OP,78,82.5,,,,,,,90,97.5,-102.5,,97.5,190,-200,-200,,190,287.5,BD,1
Damián Gomez,,M,Raw,OP,82.3,82.5,,,,,,,160,163.5,-165,,163.5,230,240,-250,,240,403.5,BD,1
Fabian Izuminawa,,M,Raw,SubM,81,82.5,,,,,,,155,-160,,,155,260,270,275,-280,275,430,BD,1
Kevin Villa,,M,Raw,Jun,88.75,90,,,,,,,110,120,-125,,120,210,230,250,-260,250,370,BD,1
Cristian Cantoni,,M,Raw,Jun,85.7,90,,,,,,,115,125,127.5,130,127.5,200,210,220,,220,347.5,BD,1
Facundo Tevez,,M,Raw,OP,87.9,90,,,,,,,112,117.5,122.5,,122.5,245,265,282.5,,282.5,405,BD,1
Marcos Di Santo,,M,Raw,OP,89.7,90,,,,,,,160,165,-170,,165,220,-230,230,,230,395,BD,1
Ramon Diaz,,M,Raw,OP,87.3,90,,,,,,,140,150,157.5,,157.5,240,252.5,262.5,,262.5,420,BD,1
Marcos Toconas,,M,Raw,SubM,83.3,90,,,,,,,125,135,140,,140,200,210,220,,220,360,BD,1
Sergio Diaz,,M,Raw,M1,86,90,,,,,,,90,100,-105,,100,190,200,-210,,200,300,BD,1
Norman Cipriano,,M,Raw,M2,88.4,90,,,,,,,105,-110,110,,110,175,190,210,,210,320,BD,1
Gonzalo Araoz,,M,Raw,OP,92.25,100,,,,,,,110,-120,-120,,110,180,-185,-185,,180,290,BD,1
Andres Gramajo Lopez,,M,Raw,SubM,98,100,,,,,,,150,160,-165,,160,255,262.5,265,,265,425,BD,1
Jose Berardi,,M,Raw,M2,96.3,100,,,,,,,130,-135,140.5,,140.5,205,215,225.5,-235,225.5,366,BD,1
Julio Martinez,,M,Raw,M2,90.2,100,,,,,,,90,100,105,,105,80,150,160,,160,265,BD,1
Lucas Quintana,,M,Raw,OP,101.7,110,,,,,,,140,150,-165,,150,190,215,220,,220,370,BD,1
Lautaro Puntano,,M,Raw,T4,114.5,117.5,,,,,,,100,110,117.5,,117.5,240,-260,260,,260,377.5,BD,1
Octavio Juarez,,M,Raw,Jun,116,117.5,,,,,,,115,125,-130,,125,250,-265,-265,,250,375,BD,1
Juan Rodriguez,,M,Raw,SubM,124.2,125,,,,,,,75,-90,-90,,75,155,165,175,,175,250,BD,1
Fernando Amaro,,M,Raw,T2,130.7,140,,,,,,,70,75,80,-85,80,-170,170,-190,,170,250,BD,1
Agustín Sosa,,M,Raw,Jun,136.4,140,,,,,,,120,130,-135,,130,230,-240,240,,240,370,BD,1
Marcos Cruz,,M,Raw,M1,128,140,,,,,,,150,157.5,165.5,,165.5,200,215,-230.5,,215,380.5,BD,1
Franco Leo Menazzi,,M,Raw,Jun,150.25,140+,,,,,,,175,190,-200,,190,310,325.5,335,,335,525,BD,1
Ruben Veron,,M,Raw,SubM,145,140+,,,,,,,165,175,180,,180,200,220,250,,250,430,BD,1
Cristian Matz,,M,Raw,M1,146.8,140+,,,,,,,135,142.5,-152.5,,142.5,235,255,265,-270,265,407.5,BD,1
Guillermo Amodeo,,M,Single-ply,M2,58,60,,,,,,,90,95,100,102.5,100,,,,,,100,B,1
Juan Ignacio Castrillo,,M,Raw,Jun,64.7,67.5,,,,,,,107.5,112.5,115.5,117.5,115.5,,,,,,115.5,B,1
Pablo Melgar,,M,Raw,SubM,67.1,67.5,,,,,,,125,-130,130,,130,,,,,,130,B,1
Facundo Rosso Dobenau,,M,Raw,T2,67,67.5,,,,,,,100,,,,100,,,,,,100,B,1
Hector Canabiri,,M,Raw,SubM,71.45,75,,,,,,,125,-130,-130,,125,,,,,,125,B,1
Marcos Di Santo,,M,Raw,OP,89.9,90,,,,,,,155,,,,155,,,,,,155,B,1
Julio Moran,,M,Raw,OP,90,90,,,,,,,130,137.5,-142.5,,137.5,,,,,,137.5,B,1
Jose Rodriguez #39,,M,Single-ply,M2,88.8,90,,,,,,,90,95,100,,100,,,,,,100,B,1
Jorgue Anibal Franco,,M,Single-ply,M4,86.9,90,,,,,,,-160,-160,160,,160,,,,,,160,B,1
Oscar Gonzalez,,M,Raw,M4,100,100,,,,,,,130,135,140,,140,,,,,,140,B,1
Javier Bernachi,,M,Raw,SubM,107.6,110,,,,,,,192.5,195,197.5,-200,197.5,,,,,,197.5,B,1
Marcelo Wagner,,M,Raw,M3,107.6,110,,,,,,,150,155,160,,160,,,,,,160,B,1
Víctor Giles,,M,Raw,M1,114.4,117.5,,,,,,,200,-210,-210,,200,,,,,,200,B,1
Walter Echeverria,,M,Raw,M2,110.7,117.5,,,,,,,160,165,170.5,,170.5,,,,,,170.5,B,1
Lucas Saavedra,,M,Raw,SubM,137,140,,,,,,,195,210,-217.5,,210,,,,,,210,B,1
Agustin Guerrero,,M,Raw,M2,130.7,140,,,,,,,180,-190,-190,,180,,,,,,180,B,1
Gaston Bersia,,M,Raw,SubM,145,140+,,,,,,,220,230,-235,,230,,,,,,230,B,1
Bernardette Marin,,F,Raw,OP,51.3,52,,,,,,,,,,,,130,140,145,-147.5,145,145,D,1
Sonia Sarapura,,F,Raw,M1,53,56,,,,,,,,,,,,110,115,118,,118,118,D,1
Catalina Groppa,,F,Raw,Jun,55.6,56,,,,,,,,,,,,102.5,107.5,112.5,,112.5,112.5,D,1
Soledad Chauqui,,F,Raw,OP,60,60,,,,,,,,,,,,150,160,165,,165,165,D,1
Vanina Villalba,,F,Raw,M1,75,75,,,,,,,,,,,,110,130,-140,,130,130,D,1
Leandro Rimoldi,,M,Raw,Jun,58.5,60,,,,,,,,,,,,140,150,-165,,150,150,D,1
Rafael Castro,,M,Raw,Jun,66,67.5,,,,,,,,,,,,185,195,200.5,-205,200.5,200.5,D,1
Agustin Fernandez,,M,Raw,Jun,66.4,67.5,,,,,,,,,,,,172.5,180,190,,190,190,D,1
Manuel Bereguer,,M,Raw,Jun,72,75,,,,,,,,,,,,100,,,,100,100,D,1
Juan Campostrini,,M,Raw,Jun,73.9,75,,,,,,,,,,,,200,210,220,-225.5,220,220,D,1
Martín San Felice,,M,Single-ply,SubM,77.2,82.5,,,,,,,,,,,,185,195,200,,200,200,D,1
Facundo Tevez,,M,Raw,OP,82.5,82.5,,,,,,,,,,,,245,265,277.5,,277.5,277.5,D,1
Marcelo Lobo,,M,Raw,M2,86.3,90,,,,,,,,,,,,255.5,265,275,280,275,275,D,1
Alejandro Lamperti,,M,Single-ply,M2,89,90,,,,,,,,,,,,210,225,230,-235,230,230,D,1
Eduardo Lamas,,M,Raw,SubM,94.8,100,,,,,,,,,,,,160,190,200,,200,200,D,1
Mariano Miravalles,,M,Raw,M1,94.8,100,,,,,,,,,,,,260,277.5,285,,285,285,D,1
Franco Leo Menazzi,,M,Raw,Jun,150,140+,,,,,,,,,,,,315,-331,-341,,315,315,D,1
Agustín Sosa,,M,Raw,Jun,136.4,140,,,,,,,,,,,,230,-250,,,230,230,D,1
Julio Nicolas Peralta,,M,Raw,OP,125.5,140,,,,,,,,,,,,215,-230,-230,,215,215,D,1
Lucas Saavedra,,M,Raw,SubM,137,140,,,,,,,,,,,,310,330,350,,350,350,D,1
Alfredo Martín Rojas,,M,Raw,SubM,130.9,140,,,,,,,,,,,,300,315,330,,330,330,D,1
