Division,WeightClassKg,Place,Name,Team,BodyweightKg,Best3SquatKg,Best3BenchKg,Best3DeadliftKg,TotalKg,Equipment,Event,Sex
Boys,51.71,1,Ricky Guerra,Poteet,50.17,127.01,90.72,145.15,362.87,Single-ply,SBD,M
Boys,51.71,2,Josh Nowlin,San Antonio East Central,48.35,120.2,74.84,136.08,331.12,Single-ply,SBD,M
Boys,51.71,3,Sid Alcoser,Somerset,50.89,133.81,56.7,136.08,326.59,Single-ply,SBD,M
Boys,51.71,4,Jeremiah Jimenez,Lytle,49.9,124.74,58.97,136.08,319.78,Single-ply,SBD,M
Boys,51.71,5,Jesus Gomez,Somerset,51.07,113.4,74.84,129.27,317.51,Single-ply,SBD,M
Boys,51.71,6,Jose Nevarez,Uvalde,45.18,79.38,43.09,97.52,219.99,Single-ply,SBD,M
Boys,51.71,7,Daniel Rodriquez,Poteet,50.53,113.4,,,113.4,Single-ply,S,M
Boys,55.79,1,John Guillen,Lytle,55.34,158.76,106.59,170.1,435.45,Single-ply,SBD,M
Boys,55.79,2,Julio Ramirez,Comal Canyon,52.98,142.88,56.7,149.69,349.27,Single-ply,SBD,M
Boys,55.79,3,John Dominguez,Somerset,52.62,124.74,61.23,147.42,333.39,Single-ply,SBD,M
Boys,55.79,4,Josh Barrera,Lytle,53.98,104.33,56.7,122.47,283.5,Single-ply,SBD,M
Boys,55.79,5,Xavier Huerta,Lytle,53.43,97.52,52.16,108.86,258.55,Single-ply,SBD,M
Boys,55.79,6,Matthew Martinez,Uvalde,54.52,72.57,47.63,124.74,244.94,Single-ply,SBD,M
Boys,55.79,7,Ramon Vasquez,San Antonio Memorial,53.52,90.72,36.29,104.33,231.33,Single-ply,SBD,M
Boys,59.87,1,Leonard Garza,Poteet,57.79,185.97,106.59,167.83,460.4,Single-ply,SBD,M
Boys,67.13,2,Marc Campos,San Antonio East Central,59.96,172.37,88.45,158.76,419.57,Single-ply,SBD,M
Boys,59.87,3,Eli Arzola,Seguin,59.42,142.88,90.72,163.29,396.89,Single-ply,SBD,M
Boys,59.87,4,Benito Flores,San Antonio Southside,58.97,122.47,97.52,151.95,371.95,Single-ply,SBD,M
Boys,67.13,5,Luis Flores,Poteet,60.06,149.69,68.04,147.42,365.14,Single-ply,SBD,M
Boys,59.87,6,Kevin Avila,Lytle,59.87,131.54,63.5,138.35,333.39,Single-ply,SBD,M
Boys,59.87,DQ,Nick Garcia #6,San Antonio Memorial,59.78,,,,,Single-ply,SBD,M
Boys,59.87,DQ,Daniel Zamora,Seguin,59.33,149.69,,,,Single-ply,SBD,M
Boys,59.87,DQ,Chris Aguilar,San Antonio Memorial,56.34,,,,,Single-ply,SBD,M
Boys,67.13,1,Ozzy Varela,Somerset,66.9,208.65,108.86,204.12,521.63,Single-ply,SBD,M
Boys,67.13,2,Matt Ritch,San Antonio East Central,66.41,176.9,106.59,163.29,446.79,Single-ply,SBD,M
Boys,67.13,3,Adam Austin,Del Rio,66.68,170.1,92.99,172.37,435.45,Single-ply,SBD,M
Boys,67.13,4,Ricky Hernandez,Del Rio,66.5,163.29,92.99,167.83,424.11,Single-ply,SBD,M
Boys,67.13,5,Ozzy Gonzalez,Somerset,63.41,156.49,72.57,172.37,401.43,Single-ply,SBD,M
Boys,67.13,6,Andy Rivera,Universal City Randolph,65.14,140.61,86.18,170.1,396.89,Single-ply,SBD,M
Boys,67.13,7,Chris Marachi,Universal City Randolph,66.32,145.15,97.52,154.22,396.89,Single-ply,SBD,M
Boys,67.13,8,Taylor Carrillo,Lytle,65.5,129.27,86.18,151.95,367.41,Single-ply,SBD,M
Boys,67.13,9,Alfredo Ramon,Uvalde,66.13,117.93,72.57,154.22,344.73,Single-ply,SBD,M
Boys,67.13,10,Dylan Aguinaga,Lytle,67.04,113.4,74.84,136.08,324.32,Single-ply,SBD,M
Boys,67.13,11,Jacob Rivera,Uvalde,62.6,117.93,61.23,120.2,299.37,Single-ply,SBD,M
Boys,67.13,12,Jj Aguinaga,Lytle,65.5,106.59,52.16,127.01,285.76,Single-ply,SBD,M
Boys,67.13,13,Daniel Mendiola,Somerset,65.05,90.72,49.9,97.52,238.14,Single-ply,SBD,M
Boys,67.13,DQ,Joshua Ramos,Somerset,67.13,,,,,Single-ply,SBD,M
Boys,67.13,DQ,Johnny Salazar,Somerset,63.14,111.13,,,,Single-ply,SBD,M
Boys,67.13,DQ,Francisco Martinez,Poteet,62.96,95.25,74.84,,,Single-ply,SBD,M
Boys,67.13,DQ,Matthew Rollins,Lytle,64.86,,,,,Single-ply,SBD,M
Boys,67.13,DQ,Mason Lindner,Comfort,66.95,145.15,104.33,,,Single-ply,SBD,M
Boys,67.13,DQ,Jeremiah Vasquez-Zavala,Boerne Champion,64.59,,,,,Single-ply,SBD,M
Boys,82.1,1,Hayden Eskew,Buda Hays,75.02,170.1,129.27,197.31,496.68,Single-ply,SBD,M
Boys,82.1,2,David Clay,San Antonio East Central,75.02,174.63,102.06,199.58,476.27,Single-ply,SBD,M
Boys,74.84,3,Zack Bosquez,Comfort,73.21,158.76,99.79,199.58,458.13,Single-ply,SBD,M
Boys,74.84,4,Will Perrin,Universal City Randolph,71.21,176.9,81.65,197.31,455.86,Single-ply,SBD,M
Boys,74.84,5,Isreal Pacheco,Somerset,71.03,154.22,92.99,204.12,451.32,Single-ply,SBD,M
Boys,74.84,6,Mario Munoz,Center Point,74.3,192.78,99.79,158.76,451.32,Single-ply,SBD,M
Boys,74.84,7,Eric Castaneda,San Antonio Memorial,72.76,167.83,104.33,158.76,430.91,Single-ply,SBD,M
Boys,74.84,8,Jake Martinez,Lytle,74.48,154.22,90.72,179.17,424.11,Single-ply,SBD,M
Boys,82.1,9,Daniel Ramirez,San Antonio Kennedy,74.93,147.42,97.52,154.22,399.16,Single-ply,SBD,M
Boys,74.84,10,Austin Jester,Buda Hays,73.48,142.88,92.99,158.76,394.63,Single-ply,SBD,M
Boys,74.84,11,Mark Gonzales,San Antonio Memorial,74.12,145.15,72.57,149.69,367.41,Single-ply,SBD,M
Boys,74.84,12,Lemuel Ramirez,Center Point,74.75,149.69,88.45,117.93,356.07,Single-ply,SBD,M
Boys,74.84,13,Michael Maloney,Boerne Champion,71.03,124.74,77.11,142.88,344.73,Single-ply,SBD,M
Boys,74.84,14,Noel Gonzales,Uvalde,72.12,136.08,72.57,136.08,344.73,Single-ply,SBD,M
Boys,74.84,15,Alexander Degrenia,Del Rio,72.67,111.13,92.99,140.61,344.73,Single-ply,SBD,M
Boys,74.84,16,Eric Luke,Comfort,73.21,129.27,74.84,138.35,342.46,Single-ply,SBD,M
Boys,74.84,17,Devyn Schultz,Kenedy,73.3,111.13,72.57,138.35,322.05,Single-ply,SBD,M
Boys,74.84,18,John Austin Griffith,Boerne Champion,73.03,115.67,74.84,127.01,317.51,Single-ply,SBD,M
Boys,74.84,19,Mason McGovern,Boerne Champion,69.58,117.93,70.31,124.74,312.98,Single-ply,SBD,M
Boys,74.84,20,Chris Taylor #9,Comfort,67.95,113.4,58.97,136.08,308.44,Single-ply,SBD,M
Boys,74.84,21,Daniel Luna,Uvalde,68.76,77.11,86.18,131.54,294.84,Single-ply,SBD,M
Boys,74.84,22,Seth Lorta,Del Rio,70.4,99.79,68.04,113.4,281.23,Single-ply,SBD,M
Boys,74.84,23,Raul Conchas,Del Rio,70.85,92.99,65.77,122.47,281.23,Single-ply,SBD,M
Boys,74.84,24,Matt Chapa,Center Point,70.49,149.69,81.65,,231.33,Single-ply,SB,M
Boys,74.84,DQ,Abel DeLoera,Lytle,70.4,142.88,,,,Single-ply,SB,M
Boys,74.84,DQ,Jacob Ritch,San Antonio East Central,74.75,204.12,138.35,,,Single-ply,SB,M
Boys,74.84,DQ,Omar Guadarrana,San Antonio Southside,73.03,158.76,92.99,,,Single-ply,SB,M
Boys,74.84,DQ,Trapper Hooter,Center Point,73.94,,,,,Single-ply,SB,M
Boys,82.1,1,Dillion Brunet,Center Point,77.2,213.19,113.4,208.65,535.24,Single-ply,SBD,M
Boys,82.1,2,Rueben Hinojosa,Lytle,80.74,197.31,102.06,226.8,526.17,Single-ply,SBD,M
Boys,82.1,3,Justin Roberson,San Antonio Southside,81.19,219.99,120.2,185.97,526.17,Single-ply,SBD,M
Boys,82.1,4,Nate Cantrell,Comfort,75.84,190.51,122.47,195.04,508.02,Single-ply,SBD,M
Boys,82.1,5,Brian Staffen,Del Rio,79.02,181.44,111.13,192.78,485.34,Single-ply,SBD,M
Boys,82.1,6,Daniel Lee-Heneke,San Antonio Southside,80.65,192.78,111.13,174.63,478.54,Single-ply,SBD,M
Boys,82.1,7,Alex Bustamante #2,San Antonio Southside,79.47,147.42,86.18,183.7,417.3,Single-ply,SBD,M
Boys,82.1,8,Roland DeLeon,San Antonio Kennedy,80.47,149.69,102.06,163.29,415.04,Single-ply,SBD,M
Boys,82.1,9,Michael Bustamante,Somerset,78.38,161.03,97.52,151.95,410.5,Single-ply,SBD,M
Boys,82.1,10,John Valdez,Somerset,79.2,154.22,90.72,161.03,405.97,Single-ply,SBD,M
Boys,82.1,11,Rigo Bueno,Uvalde,75.84,158.76,77.11,149.69,385.55,Single-ply,SBD,M
Boys,82.1,12,EJ Flores,Boerne Champion,81.01,140.61,83.91,136.08,360.61,Single-ply,SBD,M
Boys,82.1,13,Bailey Walker,Comfort,77.02,117.93,74.84,154.22,347,Single-ply,SBD,M
Boys,82.1,14,Hector Martinez,San Antonio Kennedy,81.92,106.59,90.72,122.47,319.78,Single-ply,SBD,M
Boys,82.1,15,Brian Rivera,Del Rio,82.01,131.54,74.84,113.4,319.78,Single-ply,SBD,M
Boys,82.1,16,Larry Stevens,Kenedy,75.3,122.47,70.31,122.47,315.25,Single-ply,SBD,M
Boys,82.1,17,Joey Huizar,Del Rio,77.93,83.91,83.91,140.61,308.44,Single-ply,SBD,M
Boys,82.1,DQ,Trey Mann,Agua Dulce,78.11,,88.45,88.45,,Single-ply,SBD,M
Boys,82.1,DQ,Joey Mendez,San Antonio Memorial,82.01,145.15,65.77,,,Single-ply,SBD,M
Boys,82.1,DQ,Richard Pena,San Antonio Southside,80.56,,,,,Single-ply,SBD,M
Boys,82.1,DQ,Justin Quesada,Somerset,80.1,201.85,122.47,,,Single-ply,SBD,M
Boys,89.81,1,Santos Dominguez,San Antonio East Central,87.72,229.06,122.47,226.8,578.33,Single-ply,SBD,M
Boys,89.81,2,Henry Vasquez,San Antonio East Central,89.72,229.06,122.47,197.31,548.85,Single-ply,SBD,M
Boys,89.81,3,Victor Martinez,Buda Hays,86.82,199.58,129.27,197.31,526.17,Single-ply,SBD,M
Boys,89.81,4,Cole Thompson,Universal City Randolph,83.73,188.24,115.67,213.19,517.1,Single-ply,SBD,M
Boys,89.81,5,Jacob Almaguer,Seguin,83.73,188.24,106.59,192.78,487.61,Single-ply,SBD,M
Boys,89.81,6,Carlos Carrillo,Lytle,87.27,185.97,113.4,185.97,485.34,Single-ply,SBD,M
Boys,89.81,7,Adolph Lopez,San Antonio Southside,86.18,176.9,117.93,188.24,483.08,Single-ply,SBD,M
Boys,89.81,8,Sam Osborne,Universal City Randolph,86.82,163.29,83.91,176.9,424.11,Single-ply,SBD,M
Boys,89.81,9,Pete Perez,San Antonio Memorial,83.28,138.35,99.79,156.49,394.63,Single-ply,SBD,M
Boys,89.81,10,Rudy Pena,San Antonio Kennedy,89.18,154.22,86.18,154.22,394.63,Single-ply,SBD,M
Boys,89.81,11,Sam Jones #1,Universal City Randolph,88.18,147.42,65.77,163.29,376.48,Single-ply,SBD,M
Boys,89.81,12,Martin Galvan,San Antonio Kennedy,89.72,138.35,90.72,142.88,371.95,Single-ply,SBD,M
Boys,89.81,13,Joe Tovar,Somerset,89.81,133.81,68.04,136.08,337.93,Single-ply,SBD,M
Boys,89.81,14,Cody Watson,San Marcos Baptist,88.99,113.4,83.91,127.01,324.32,Single-ply,SBD,M
Boys,89.81,15,Dominic Potter,Lytle,84.82,52.16,43.09,102.06,197.31,Single-ply,SBD,M
Boys,89.81,DQ,Esteban Ferdin,Lytle,86.64,208.65,,,,Single-ply,SBD,M
Boys,99.79,1,Pj Hall,Seguin,98.16,226.8,120.2,247.21,594.21,Single-ply,SBD,M
Boys,99.79,2,Juan DeLeon,San Antonio Southside,97.34,222.26,106.59,215.46,544.31,Single-ply,SBD,M
Boys,99.79,3,Joe Hernandez #1,San Antonio East Central,92.9,219.99,127.01,195.04,542.04,Single-ply,SBD,M
Boys,99.79,4,Mark Cerda,Somerset,92.71,201.85,104.33,204.12,510.29,Single-ply,SBD,M
Boys,99.79,5,Vinnie Flores,Comal Canyon,93.89,210.92,97.52,192.78,501.22,Single-ply,SBD,M
Boys,99.79,6,Christian Avila,San Antonio Southside,94.62,190.51,120.2,183.7,494.42,Single-ply,SBD,M
Boys,99.79,7,Ian Coleman,Universal City Randolph,97.52,208.65,113.4,167.83,489.88,Single-ply,SBD,M
Boys,99.79,8,Jesus Hernandez #2,San Antonio Memorial,98.25,208.65,104.33,163.29,476.27,Single-ply,SBD,M
Boys,99.79,9,Jack Richison,Comfort,97.52,156.49,113.4,195.04,464.93,Single-ply,SBD,M
Boys,99.79,10,Paul Mesta,Del Rio,96.89,149.69,104.33,170.1,424.11,Single-ply,SBD,M
Boys,99.79,11,Nick Ringler,Universal City Randolph,98.52,154.22,106.59,163.29,424.11,Single-ply,SBD,M
Boys,99.79,12,James Carte,Boerne Champion,98.88,156.49,115.67,151.95,424.11,Single-ply,SBD,M
Boys,99.79,13,Fred Carrasco,San Antonio Kennedy,95.71,140.61,83.91,156.49,381.02,Single-ply,SBD,M
Boys,99.79,14,Henry Garzes,Poteet,98.25,158.76,77.11,140.61,376.48,Single-ply,SBD,M
Boys,99.79,15,Conner Mitchell,Boerne Champion,98.25,133.81,99.79,142.88,376.48,Single-ply,SBD,M
Boys,99.79,16,Ivan Hernandez,Uvalde,96.34,136.08,77.11,154.22,367.41,Single-ply,SBD,M
Boys,99.79,17,Jesus Zendejas,Del Rio,96.8,145.15,83.91,136.08,365.14,Single-ply,SBD,M
Boys,99.79,18,Bryce Sandoval,Poteet,93.89,136.08,88.45,136.08,360.61,Single-ply,SBD,M
Boys,99.79,DQ,Stevie Cavazos,Natalia,92.35,167.83,102.06,,,Single-ply,SBD,M
Boys,109.77,1,Salvador Marines,Somerset,106.78,326.59,142.88,263.08,732.55,Single-ply,SBD,M
Boys,109.77,2,Nathan Schneider,Seguin,103.42,235.87,156.49,222.26,614.62,Single-ply,SBD,M
Boys,109.77,3,Chris McCumber,San Antonio East Central,100.79,238.14,138.35,204.12,580.6,Single-ply,SBD,M
Boys,109.77,4,Ricardo Aleman,San Antonio Memorial,108.32,217.72,138.35,222.26,578.33,Single-ply,SBD,M
Boys,109.77,5,Gus Palacios,San Antonio Kennedy,107.14,183.7,129.27,226.8,539.77,Single-ply,SBD,M
Boys,109.77,6,Hunter Ullrich,Seguin,104.78,204.12,138.35,195.04,537.51,Single-ply,SBD,M
Boys,109.77,7,Joe Cantu,Lytle,104.51,217.72,102.06,215.46,535.24,Single-ply,SBD,M
Boys,109.77,8,Cole Callaway,Universal City Randolph,106.87,195.04,142.88,190.51,528.44,Single-ply,SBD,M
Boys,109.77,9,Justin Ornelas,Del Rio,101.33,183.7,111.13,188.24,483.08,Single-ply,SBD,M
Boys,109.77,10,Clay Carey,Boerne Champion,107.14,188.24,113.4,172.37,474,Single-ply,SBD,M
Boys,109.77,11,Aaron Herrera,Del Rio,107.95,183.7,95.25,190.51,469.47,Single-ply,SBD,M
Boys,109.77,12,Benjamin Frieda,Somerset,106.05,158.76,88.45,163.29,410.5,Single-ply,SBD,M
Boys,109.77,13,Gage Briones,Center Point,100.06,156.49,77.11,151.95,385.55,Single-ply,SBD,M
Boys,109.77,14,Michael Blythe,Somerset,109.59,127.01,92.99,142.88,362.87,Single-ply,SBD,M
Boys,109.77,15,Gary La Rue,San Antonio Kennedy,105.05,127.01,74.84,127.01,328.85,Single-ply,SBD,M
Boys,109.77,DQ,Duke Aguirre,San Antonio Kennedy,107.68,131.54,,,,Single-ply,SBD,M
Boys,109.77,DQ,Eddie Lopez,San Antonio East Central,108.05,249.48,,,,Single-ply,SBD,M
Boys,109.77,DQ,Kevin Garcia,Poteet,109.23,,,,,Single-ply,SBD,M
Boys,109.77,DQ,Rob Davis,Boerne Champion,107.23,179.17,,,,Single-ply,SBD,M
Boys,124.74,1,Will Cavanaugh,Comal Canyon,121.11,294.84,158.76,240.4,694,Single-ply,SBD,M
Boys,124.74,2,Alfred Godines,Somerset,121.29,285.76,174.63,226.8,687.19,Single-ply,SBD,M
Boys,124.74,3,Robert Huitron,San Antonio Southside,112.49,265.35,147.42,210.92,623.69,Single-ply,SBD,M
Boys,124.74,4,Daniel Casares,Somerset,117.48,226.8,154.22,204.12,585.13,Single-ply,SBD,M
Boys,124.74,5,Jon Macat,Lytle,116.39,204.12,115.67,197.31,517.1,Single-ply,SBD,M
Boys,124.74,6,Raul Loza,Natalia,117.93,226.8,111.13,179.17,517.1,Single-ply,SBD,M
Boys,124.74,7,Travis Timmerman,Seguin,123.29,199.58,108.86,192.78,501.22,Single-ply,SBD,M
Boys,124.74,8,Colton Bragg,Lytle,117.39,156.49,117.93,204.12,478.54,Single-ply,SBD,M
Boys,124.74,9,Ronnie Lucio,Poteet,114.58,210.92,92.99,170.1,474,Single-ply,SBD,M
Boys,124.74,10,Jose Castillo #8,Somerset,118.39,172.37,111.13,165.56,449.06,Single-ply,SBD,M
Boys,124.74,11,Zachary Moreno,Somerset,115.03,158.76,115.67,158.76,433.18,Single-ply,SBD,M
Boys,124.74,12,Carson Koehler,Comal Canyon,120.11,158.76,92.99,158.76,410.5,Single-ply,SBD,M
Boys,124.74,13,Noah Ramirez,Comfort,120.84,161.03,86.18,163.29,410.5,Single-ply,SBD,M
Boys,124.74,DQ,Chris Trujillo,Center Point,111.77,188.24,113.4,,,Single-ply,SBD,M
Boys,124.74,DQ,Joseph Shamblem,Lytle,121.47,136.08,72.57,,,Single-ply,SBD,M
Boys,124.74+,1,Jonathon Saldana,Floresville,141.79,306.17,154.22,258.55,718.94,Single-ply,SBD,M
Boys,124.74+,2,Mark Alarcon,San Antonio East Central,134.72,263.08,154.22,222.26,639.57,Single-ply,SBD,M
Boys,124.74+,3,Guy LaRue,San Antonio Kennedy,151.14,233.6,124.74,233.6,591.94,Single-ply,SBD,M
Boys,124.74+,4,Jacob Smith,Comal Canyon,126.73,226.8,122.47,226.8,576.06,Single-ply,SBD,M
Boys,124.74+,5,Gabriel Garza #1,Somerset,133.36,226.8,131.54,195.04,553.38,Single-ply,SBD,M
Boys,124.74+,6,Trent Rhodes,Center Point,125.65,233.6,124.74,190.51,548.85,Single-ply,SBD,M
Boys,124.74+,7,Joel Corona,Lytle,143.34,213.19,108.86,226.8,548.85,Single-ply,SBD,M
Boys,124.74+,8,Kyle Oden,Uvalde,134.26,197.31,113.4,226.8,537.51,Single-ply,SBD,M
Boys,124.74+,9,Jacob Ortiz,Agua Dulce,129.18,206.38,104.33,192.78,503.49,Single-ply,SBD,M
Boys,124.74+,10,Ruben Villarreal,Del Rio,126.64,170.1,95.25,217.72,483.08,Single-ply,SBD,M
Boys,124.74+,DQ,Javi Flores,Boerne Champion,142.61,192.78,,,,Single-ply,SBD,M
