Division,WeightClassKg,Place,Name,Team,BodyweightKg,Best3SquatKg,Best3BenchKg,Best3DeadliftKg,TotalKg,Equipment,Event,Sex,BirthDate
Boys,55.79,1,John Wyatt #1,Fort Worth Chisholm Trail,54.25,106.59,58.97,115.67,281.23,Single-ply,SBD,M,
Boys,55.79,2,Nick Fulton,Saginaw,54.3,79.38,38.56,92.99,210.92,Single-ply,SBD,M,
Boys,55.79,DQ,Alex Blackwell,Azle,54.79,106.59,,122.47,,Single-ply,SBD,M,
Boys,59.87,1,Brandon Justice,Saginaw,58.01,108.86,63.5,145.15,317.51,Single-ply,SBD,M,
Boys,59.87,2,Denim Fields #1,Azle,58.92,97.52,61.23,131.54,290.3,Single-ply,SBD,M,
Boys,59.87,3,Cooper Magee,Azle,57.47,99.79,56.7,111.13,267.62,Single-ply,SBD,M,
Boys,67.13,1,Jackie Vong,Saginaw,62.69,145.15,97.52,190.51,433.18,Single-ply,SBD,M,
Boys,67.13,2,Djonny Mukuna,Saginaw,65.18,163.29,92.99,156.49,412.77,Single-ply,SBD,M,
Boys,67.13,3,Jacob Denmore,Fort Worth Chisholm Trail,63.37,136.08,90.72,161.03,387.82,Single-ply,SBD,M,
Boys,67.13,4,Jesus Calderon,Saginaw,61.14,127.01,83.91,161.03,371.95,Single-ply,SBD,M,
Boys,67.13,5,Nathan Brewer,Saginaw,66.13,142.88,74.84,131.54,349.27,Single-ply,SBD,M,
Boys,67.13,6,Jack Jestis,Azle,65.54,111.13,86.18,145.15,342.46,Single-ply,SBD,M,
Boys,67.13,7,Cory Courtney,Fort Worth Chisholm Trail,66.22,124.74,68.04,142.88,335.66,Single-ply,SBD,M,
Boys,67.13,8,Isaac Braly,Saginaw,63.91,104.33,68.04,136.08,308.44,Single-ply,SBD,M,
Boys,67.13,9,Kaleb Vasquez,Azle,63.19,97.52,61.23,122.47,281.23,Single-ply,SBD,M,
Boys,74.84,1,Sean Verdun,Saginaw,72.71,161.03,102.06,167.83,430.91,Single-ply,SBD,M,
Boys,74.84,2,Jaden Fisher,Fort Worth Chisholm Trail,74.8,149.69,90.72,181.44,421.84,Single-ply,SBD,M,
Boys,74.84,3,Moise Mpala,Fort Worth Chisholm Trail,67.72,151.95,86.18,167.83,405.97,Single-ply,SBD,M,
Boys,74.84,4,Billy Heath,Azle,69.04,154.22,86.18,158.76,399.16,Single-ply,SBD,M,
Boys,74.84,5,Cam Washington,Fort Worth Chisholm Trail,68.49,138.35,88.45,167.83,394.63,Single-ply,SBD,M,
Boys,74.84,6,Emerson Sheperd,Saginaw,72.76,124.74,90.72,167.83,383.29,Single-ply,SBD,M,
Boys,74.84,7,Stan Chwojdak,Saginaw,70.4,136.08,88.45,149.69,374.21,Single-ply,SBD,M,
Boys,74.84,8,Amaurion Jackson,Fort Worth Chisholm Trail,73.89,120.2,65.77,163.29,349.27,Single-ply,SBD,M,
Boys,74.84,9,Dylan Quinn,Saginaw,72.44,124.74,77.11,145.15,347,Single-ply,SBD,M,
Boys,74.84,DQ,Holt Lee,Azle,71.3,120.2,,149.69,,Single-ply,SBD,M,
Boys,82.1,1,Shone Mombo,Fort Worth Chisholm Trail,81.15,172.37,92.99,183.7,449.06,Single-ply,SBD,M,
Boys,82.1,2,Michael Onoloapo,Fort Worth Chisholm Trail,77.43,158.76,92.99,151.95,403.7,Single-ply,SBD,M,
Boys,82.1,3,Robert Hardin,Fort Worth Chisholm Trail,77.56,111.13,90.72,181.44,383.29,Single-ply,SBD,M,
Boys,82.1,4,Bryce Holingsworth,Fort Worth Chisholm Trail,78.06,133.81,81.65,165.56,381.02,Single-ply,SBD,M,
Boys,82.1,5,Jeremiah Dowell,Fort Worth Chisholm Trail,81.6,129.27,74.84,154.22,358.34,Single-ply,SBD,M,
Boys,82.1,6,Caden Hickman,Saginaw,80.56,136.08,74.84,142.88,353.8,Single-ply,SBD,M,
Boys,89.81,1,Tyler Luangraj,Saginaw,87.86,192.78,102.06,190.51,485.34,Single-ply,SBD,M,
Boys,89.81,2,Garrett Gouyton,Azle,82.46,170.1,113.4,172.37,455.86,Single-ply,SBD,M,
Boys,99.79,1,Danny Simmons,Fort Worth Chisholm Trail,98.34,183.7,104.33,190.51,478.54,Single-ply,SBD,M,
Boys,99.79,2,Kaden Jefferson,Saginaw,92.49,165.56,97.52,172.37,435.45,Single-ply,SBD,M,
Boys,99.79,3,Zack Barrett,Azle,96.98,145.15,97.52,170.1,412.77,Single-ply,SBD,M,
Boys,99.79,4,Brennan Villalta,Azle,99.06,129.27,77.11,140.61,347,Single-ply,SBD,M,
Boys,109.77,1,Adam Lindsey,Saginaw,104.69,195.04,102.06,210.92,508.02,Single-ply,SBD,M,
Boys,109.77,2,Gerardo De La O,Saginaw,104.78,165.56,102.06,174.63,442.25,Single-ply,SBD,M,
Boys,109.77,3,Kaleb Robinson,Azle,108.32,174.63,79.38,170.1,424.11,Single-ply,SBD,M,
Boys,109.77,4,Klayton Stephens,Azle,109.41,111.13,72.57,127.01,310.71,Single-ply,SBD,M,
Boys,109.77,DQ,Jordan McDaniel,Saginaw,103.06,199.58,,174.63,,Single-ply,SBD,M,
Boys,124.74,1,Alex Trejo,Saginaw,116.53,235.87,140.61,244.94,621.42,Single-ply,SBD,M,
Boys,124.74,2,Caanan Revelle,Azle,115.71,219.99,142.88,192.78,555.65,Single-ply,SBD,M,
Boys,124.74,3,Juan Garcia #3,Fort Worth Chisholm Trail,122.97,215.46,122.47,206.38,544.31,Single-ply,SBD,M,
Boys,124.74,4,Jason Harris,Azle,119.98,238.14,111.13,176.9,526.17,Single-ply,SBD,M,
Boys,124.74,5,Case Mason,Saginaw,113.35,197.31,113.4,210.92,521.63,Single-ply,SBD,M,
Boys,124.74,6,Jonathan Robles,Azle,118.57,181.44,97.52,163.29,442.25,Single-ply,SBD,M,
Boys,124.74,7,Nicholas Perez #2,Fort Worth Chisholm Trail,114.44,147.42,79.38,176.9,403.7,Single-ply,SBD,M,
Boys,124.74,8,Raul Sifuentes,Saginaw,124.42,142.88,77.11,167.83,387.82,Single-ply,SBD,M,
Boys,124.74+,1,Cole Hilliard,Azle,152.54,265.35,129.27,222.26,616.89,Single-ply,SBD,M,
Boys,124.74+,2,Devon Boisvert,Azle,132.68,204.12,83.91,208.65,496.68,Single-ply,SBD,M,
Boys,124.74+,3,Brandon Crews,Azle,148.6,136.08,90.72,158.76,385.55,Single-ply,SBD,M,
Boys,124.74+,DQ,Colton Barber,Saginaw,130.5,206.38,,174.63,,Single-ply,SBD,M,
